{
  "metadata": {
    "title": "HLS live streaming demo"
  },
  "streams": [
    {
      "sources": {
        "hls": [
          {
            "src": "https://wowza.cern.ch/np02detector/np02-cam-001.stream/playlist.m3u8",
            "mimetype": "video/mp4",
            "isLiveStream": true
          }
        ]
      },
      "preview": "",
      "content":"presenter"
    }
  ],
  "frameList": [
  ]
}